<svg width="16" height="18" viewBox="0 0 16 18" fill="none" xmlns="http://www.w3.org/2000/svg">
<path fill-rule="evenodd" clip-rule="evenodd" d="M6.18457 1C5.47969 1.00006 4.8037 1.28383 4.30527 1.7889C3.80684 2.29396 3.52681 2.97897 3.52675 3.69325V5.62261H0.701291C0.603745 5.62261 0.510195 5.66187 0.441221 5.73177C0.372246 5.80166 0.333496 5.89646 0.333496 5.99531V14.1553C0.333554 14.9097 0.629341 15.6333 1.1558 16.1667C1.68226 16.7002 2.39627 16.9999 3.1408 17H12.8595C13.6041 16.9999 14.3181 16.7002 14.8445 16.1667C15.371 15.6333 15.6668 14.9097 15.6668 14.1553V5.99531C15.6668 5.89646 15.6281 5.80166 15.5591 5.73177C15.4901 5.66187 15.3966 5.62261 15.299 5.62261H12.4736V3.69326C12.4735 2.97898 12.1935 2.29397 11.6951 1.7889C11.1966 1.28383 10.5206 1.00006 9.81576 1M9.81576 1H6.18457H9.81576ZM4.82536 2.31591C5.18584 1.95062 5.67476 1.7454 6.18457 1.7454H9.81576C10.3256 1.7454 10.8145 1.95062 11.175 2.31591C11.5355 2.68121 11.738 3.17665 11.738 3.69324V5.62261H4.26234V3.69324C4.26235 3.17665 4.46487 2.68121 4.82536 2.31591ZM1.06909 6.368H3.52675V8.30661C3.52675 8.40546 3.5655 8.50025 3.63448 8.57015C3.70345 8.64004 3.797 8.67931 3.89455 8.67931C3.99209 8.67931 4.08564 8.64004 4.15462 8.57015C4.22359 8.50025 4.26234 8.40546 4.26234 8.30661V6.368H11.738V8.30661C11.738 8.40546 11.7767 8.50025 11.8457 8.57015C11.9147 8.64004 12.0082 8.67931 12.1058 8.67931C12.2033 8.67931 12.2969 8.64004 12.3658 8.57015C12.4348 8.50025 12.4736 8.40546 12.4736 8.30661V6.368H14.9312V14.1553C14.9312 14.7121 14.713 15.246 14.3244 15.6397C13.9359 16.0334 13.409 16.2546 12.8595 16.2546H3.14078C2.59133 16.2546 2.0644 16.0334 1.67588 15.6397C1.28736 15.246 1.06909 14.7121 1.06909 14.1553V6.368Z" fill="white"/>
<path d="M4.30527 1.7889C4.8037 1.28383 5.47969 1.00006 6.18457 1H9.81576C10.5206 1.00006 11.1966 1.28383 11.6951 1.7889C12.1935 2.29397 12.4735 2.97898 12.4736 3.69326V5.62261H15.299C15.3966 5.62261 15.4901 5.66187 15.5591 5.73177C15.6281 5.80166 15.6668 5.89646 15.6668 5.99531V14.1553C15.6668 14.9097 15.371 15.6333 14.8445 16.1667C14.3181 16.7002 13.6041 16.9999 12.8595 17H3.1408C2.39627 16.9999 1.68226 16.7002 1.1558 16.1667C0.629341 15.6333 0.333554 14.9097 0.333496 14.1553V5.99531C0.333496 5.89646 0.372246 5.80166 0.441221 5.73177C0.510195 5.66187 0.603745 5.62261 0.701291 5.62261H3.52675V3.69325C3.52681 2.97897 3.80684 2.29396 4.30527 1.7889ZM6.18457 1.7454C5.67476 1.7454 5.18584 1.95062 4.82536 2.31591C4.46487 2.68121 4.26235 3.17664 4.26234 3.69324V5.62261H11.738V3.69324C11.738 3.17664 11.5355 2.68121 11.175 2.31591C10.8145 1.95062 10.3256 1.7454 9.81576 1.7454H6.18457ZM1.06909 6.368H3.52675V8.30661C3.52675 8.40546 3.5655 8.50025 3.63448 8.57015C3.70345 8.64004 3.797 8.67931 3.89455 8.67931C3.99209 8.67931 4.08564 8.64004 4.15462 8.57015C4.22359 8.50025 4.26234 8.40546 4.26234 8.30661V6.368H11.738V8.30661C11.738 8.40546 11.7767 8.50025 11.8457 8.57015C11.9147 8.64004 12.0082 8.67931 12.1058 8.67931C12.2033 8.67931 12.2969 8.64004 12.3658 8.57015C12.4348 8.50025 12.4736 8.40546 12.4736 8.30661V6.368H14.9312V14.1553C14.9312 14.7121 14.713 15.246 14.3244 15.6397C13.9359 16.0334 13.409 16.2546 12.8595 16.2546H3.14078C2.59133 16.2546 2.0644 16.0334 1.67588 15.6397C1.28736 15.246 1.06909 14.7121 1.06909 14.1553V6.368Z" stroke="white" stroke-width="0.5"/>
</svg>
