<svg width="19" height="9" viewBox="0 0 19 9" fill="none" xmlns="http://www.w3.org/2000/svg">
<path d="M7.93182 4.90909V4L0.613636 0.272727V1.72727L6.18182 4.40909V4.5L0.613636 7.18182V8.63636L7.93182 4.90909ZM18.4787 4.90909V4L11.1605 0.272727V1.72727L16.7287 4.40909V4.5L11.1605 7.18182V8.63636L18.4787 4.90909Z" fill="#A4A6AA"/>
</svg>
