<svg width="24" height="24" viewBox="0 0 24 24" fill="none" xmlns="http://www.w3.org/2000/svg">
<path fill-rule="evenodd" clip-rule="evenodd" d="M5.54626 1.84555C3.36068 3.21835 1.68469 5.25474 0.770333 7.6491C-0.145159 10.0464 -0.247531 12.6727 0.478651 15.1325C1.20483 17.5922 2.7202 19.7522 4.79641 21.2874C6.87261 22.8225 9.39732 23.6497 11.9904 23.6447L11.9912 23.9999L11.9924 23.6447C14.587 23.6534 17.1142 22.8288 19.1933 21.295C21.2724 19.7612 22.7906 17.6013 23.519 15.1406C24.2473 12.6799 24.1463 10.0521 23.2312 7.65305C22.3171 5.25702 20.6405 3.21913 18.4537 1.84555C18.3395 1.78335 18.2059 1.76581 18.0792 1.7965C17.9501 1.82778 17.8378 1.90685 17.7657 2.01772C17.6935 2.12863 17.6671 2.26281 17.692 2.39254C17.7164 2.51944 17.788 2.63234 17.8923 2.70917C19.8793 3.96596 21.4011 5.8243 22.2301 8.00627C23.0605 10.1918 23.1511 12.5843 22.4885 14.8249C21.8259 17.0656 20.4456 19.0338 18.5546 20.4342C16.6635 21.8347 14.3636 22.5917 12 22.5917C9.63629 22.5917 7.33643 21.8347 5.44537 20.4342C3.55432 19.0338 2.17406 17.0656 1.51142 14.8249C0.848781 12.5843 0.939429 10.1918 1.76979 8.00627C2.5988 5.8243 4.12059 3.96596 6.10763 2.70917C6.21189 2.63234 6.28353 2.51944 6.30792 2.39254C6.33285 2.26281 6.30642 2.12863 6.23425 2.01772C6.16209 1.90685 6.0498 1.82778 5.92072 1.7965C5.79406 1.76581 5.66042 1.78335 5.54626 1.84555Z" fill="#A4A6AA"/>
<path fill-rule="evenodd" clip-rule="evenodd" d="M11.9905 0C11.8529 0 11.7207 0.0458265 11.6231 0.12766C11.5255 0.20952 11.4705 0.320717 11.4705 0.436833V10.7732C11.4705 10.8893 11.5255 11.0005 11.6231 11.0823C11.7207 11.1642 11.8529 11.21 11.9905 11.21C12.1281 11.21 12.2602 11.1642 12.3578 11.0823C12.4555 11.0005 12.5105 10.8893 12.5105 10.7732V0.436833C12.5105 0.320717 12.4555 0.209519 12.3578 0.12766C12.2602 0.0458267 12.1281 0 11.9905 0Z" fill="#A4A6AA"/>
</svg>
