<svg width="20" height="13" viewBox="0 0 20 13" fill="none" xmlns="http://www.w3.org/2000/svg">
<path fill-rule="evenodd" clip-rule="evenodd" d="M2.31445 2.31445C2.19076 2.43815 2.04427 2.5 1.875 2.5H0.625C0.455729 2.5 0.309245 2.43815 0.185547 2.31445C0.061849 2.19076 0 2.04427 0 1.875V0.625C0 0.455729 0.061849 0.309245 0.185547 0.185547C0.309245 0.061849 0.455729 0 0.625 0H1.875C2.04427 0 2.19076 0.061849 2.31445 0.185547C2.43815 0.309245 2.5 0.455729 2.5 0.625V1.875C2.5 2.04427 2.43815 2.19076 2.31445 2.31445ZM19.8145 1.68945C19.6908 1.81315 19.5443 1.875 19.375 1.875H6.25C6.08073 1.875 5.93424 1.81315 5.81055 1.68945C5.68685 1.56576 5.625 1.41927 5.625 1.25C5.625 1.08073 5.68685 0.934245 5.81055 0.810547C5.93424 0.686849 6.08073 0.625 6.25 0.625H19.375C19.5443 0.625 19.6908 0.686849 19.8145 0.810547C19.9382 0.934245 20 1.08073 20 1.25C20 1.41927 19.9382 1.56576 19.8145 1.68945ZM1.875 7.5C2.04427 7.5 2.19076 7.43815 2.31445 7.31445C2.43815 7.19076 2.5 7.04427 2.5 6.875V5.625C2.5 5.45573 2.43815 5.30924 2.31445 5.18555C2.19076 5.06185 2.04427 5 1.875 5H0.625C0.455729 5 0.309245 5.06185 0.185547 5.18555C0.061849 5.30924 0 5.45573 0 5.625V6.875C0 7.04427 0.061849 7.19076 0.185547 7.31445C0.309245 7.43815 0.455729 7.5 0.625 7.5H1.875ZM19.8145 6.68945C19.6908 6.81315 19.5443 6.875 19.375 6.875H6.25C6.08073 6.875 5.93424 6.81315 5.81055 6.68945C5.68685 6.56576 5.625 6.41927 5.625 6.25C5.625 6.08073 5.68685 5.93424 5.81055 5.81055C5.93424 5.68685 6.08073 5.625 6.25 5.625H19.375C19.5443 5.625 19.6908 5.68685 19.8145 5.81055C19.9382 5.93424 20 6.08073 20 6.25C20 6.41927 19.9382 6.56576 19.8145 6.68945ZM1.875 12.5C2.04427 12.5 2.19076 12.4382 2.31445 12.3145C2.43815 12.1908 2.5 12.0443 2.5 11.875V10.625C2.5 10.4557 2.43815 10.3092 2.31445 10.1855C2.19076 10.0618 2.04427 10 1.875 10H0.625C0.455729 10 0.309245 10.0618 0.185547 10.1855C0.061849 10.3092 0 10.4557 0 10.625V11.875C0 12.0443 0.061849 12.1908 0.185547 12.3145C0.309245 12.4382 0.455729 12.5 0.625 12.5H1.875ZM19.8145 11.6895C19.6908 11.8132 19.5443 11.875 19.375 11.875H6.25C6.08073 11.875 5.93424 11.8132 5.81055 11.6895C5.68685 11.5658 5.625 11.4193 5.625 11.25C5.625 11.0807 5.68685 10.9342 5.81055 10.8105C5.93424 10.6868 6.08073 10.625 6.25 10.625H19.375C19.5443 10.625 19.6908 10.6868 19.8145 10.8105C19.9382 10.9342 20 11.0807 20 11.25C20 11.4193 19.9382 11.5658 19.8145 11.6895Z" fill="#FF8103"/>
</svg>
