<svg width="16" height="16" viewBox="0 0 16 16" fill="none" xmlns="http://www.w3.org/2000/svg">
<mask id="mask0" mask-type="alpha" maskUnits="userSpaceOnUse" x="0" y="0" width="16" height="16">
<rect width="16" height="16" fill="#C4C4C4"/>
</mask>
<g mask="url(#mask0)">
<path d="M0.500001 1.90625C0.111676 1.51793 0.111675 0.888325 0.500001 0.499999C0.888326 0.111674 1.51793 0.111674 1.90625 0.499999L15.5 14.0938C15.8883 14.4821 15.8883 15.1117 15.5 15.5C15.1117 15.8883 14.4821 15.8883 14.0938 15.5L0.500001 1.90625Z" fill="#F03434"/>
<path d="M14.0937 0.500001C14.4821 0.111676 15.1117 0.111675 15.5 0.500001C15.8883 0.888326 15.8883 1.51793 15.5 1.90625L1.90624 15.5C1.51791 15.8883 0.888313 15.8883 0.499987 15.5C0.111662 15.1117 0.111662 14.4821 0.499987 14.0938L14.0937 0.500001Z" fill="#F03434"/>
</g>
</svg>
