<svg width="24" height="24" viewBox="0 0 24 24" fill="none" xmlns="http://www.w3.org/2000/svg">
<path d="M11.9966 13.943C10.1113 13.943 8.33905 13.2177 7.00593 11.901C5.6728 10.5842 4.93848 8.83377 4.93848 6.97164C4.93848 5.10922 5.67252 3.35878 7.00593 2.04204C8.33905 0.7253 10.1113 0 11.9966 0C13.8819 0 15.6544 0.7253 16.9875 2.04204C19.7392 4.75993 19.7392 9.18278 16.9875 11.9007C15.6544 13.2177 13.8819 13.943 11.9966 13.943ZM11.9966 1.13712C10.4189 1.13712 8.93526 1.74419 7.81967 2.84607C6.70408 3.94823 6.08946 5.41332 6.08946 6.97192C6.08946 8.52995 6.7038 9.99533 7.81967 11.0975C8.93526 12.1994 10.4189 12.8064 11.9966 12.8064C13.5743 12.8064 15.0579 12.1994 16.1738 11.0975C18.4769 8.82269 18.4769 5.12144 16.1738 2.84635C15.0579 1.74419 13.5746 1.13712 11.9966 1.13712Z" fill="#FF8103"/>
<path d="M23.4242 24C23.4225 24 23.4205 24 23.4185 24H0.575491C0.25782 24 0 23.7453 0 23.4316C0 20.2663 1.24795 17.2907 3.51395 15.0528C4.2031 14.3718 5.00303 14.041 5.95979 14.041C6.95107 14.041 7.98149 14.4068 8.97795 14.7606C9.97902 15.1159 11.0143 15.4834 11.9973 15.4834C12.9799 15.4834 14.0155 15.1159 15.0166 14.7606C16.013 14.4068 17.0435 14.041 18.0347 14.041C18.9912 14.041 19.7911 14.3718 20.4803 15.0528C22.7267 17.2713 23.9724 20.2149 23.994 23.3488C23.998 23.3758 24 23.4034 24 23.4316C23.9997 23.7453 23.7425 24 23.4242 24ZM1.16595 22.8631H22.8283C22.6893 20.2152 21.5789 17.7454 19.6665 15.8565C19.1978 15.3936 18.6793 15.1779 18.0347 15.1779C17.244 15.1779 16.3509 15.4947 15.4056 15.8304C14.3116 16.2186 13.1805 16.6202 11.997 16.6202C10.8135 16.6202 9.68235 16.2186 8.58834 15.8304C7.6431 15.4947 6.75022 15.1779 5.9595 15.1779C5.31495 15.1779 4.79643 15.3936 4.32769 15.8565C2.41534 17.7451 1.30493 20.2149 1.16595 22.8631Z" fill="#FF8103"/>
</svg>
