<svg width="8" height="16" viewBox="0 0 8 16" fill="none" xmlns="http://www.w3.org/2000/svg">
<path d="M0.00291884 8.06691C0.0175463 8.23114 0.0852424 8.38661 0.196252 8.51092L6.5821 15.7124C6.64964 15.7935 6.73323 15.8605 6.82788 15.9094C6.92252 15.9583 7.0263 15.9881 7.13302 15.9971C7.23974 16.0061 7.34723 15.994 7.44907 15.9617C7.55091 15.9293 7.64503 15.8773 7.72582 15.8087C7.80662 15.7401 7.87244 15.6563 7.91935 15.5624C7.96627 15.4685 7.99333 15.3663 7.99891 15.262C8.0045 15.1577 7.98849 15.0533 7.95186 14.9551C7.91523 14.857 7.85872 14.767 7.78569 14.6905L1.85508 8L7.78569 1.30946C7.85872 1.23303 7.91523 1.14305 7.95186 1.04487C7.98849 0.9467 8.0045 0.842339 7.99891 0.738008C7.99333 0.633677 7.96627 0.53151 7.91935 0.43759C7.87244 0.343671 7.80662 0.259921 7.72583 0.191328C7.64503 0.122734 7.55091 0.0707011 7.44907 0.0383268C7.34723 0.00595261 7.23974 -0.00610039 7.13302 0.00288541C7.0263 0.0118712 6.92253 0.0417121 6.82788 0.090631C6.73323 0.13955 6.64964 0.206546 6.5821 0.28763L0.196252 7.48908C0.125948 7.56783 0.0725991 7.65957 0.0393859 7.75884C0.00617279 7.85811 -0.0062288 7.96288 0.00291884 8.06691Z" fill="#FF8103"/>
</svg>
