<svg width="8" height="16" viewBox="0 0 8 16" fill="none" xmlns="http://www.w3.org/2000/svg">
<path d="M7.99708 8.06691C7.98245 8.23114 7.91476 8.38661 7.80375 8.51092L1.4179 15.7124C1.35036 15.7935 1.26677 15.8605 1.17212 15.9094C1.07748 15.9583 0.973696 15.9881 0.866977 15.9971C0.760258 16.0061 0.652773 15.994 0.55093 15.9617C0.449086 15.9293 0.35497 15.8773 0.274175 15.8087C0.19338 15.7401 0.127562 15.6563 0.0806466 15.5624C0.0337311 15.4685 0.00667282 15.3663 0.00108662 15.262C-0.00449957 15.1577 0.0115078 15.0533 0.0481381 14.9551C0.0847683 14.857 0.14128 14.767 0.21431 14.6905L6.14492 8L0.21431 1.30946C0.14128 1.23303 0.0847677 1.14305 0.0481375 1.04487C0.0115072 0.9467 -0.0045002 0.842339 0.00108599 0.738008C0.00667217 0.633677 0.0337304 0.53151 0.0806459 0.43759C0.127561 0.343671 0.19338 0.259921 0.274174 0.191328C0.354969 0.122734 0.449086 0.0707011 0.550929 0.0383268C0.652772 0.00595261 0.760257 -0.00610039 0.866976 0.00288541C0.973695 0.0118712 1.07747 0.0417121 1.17212 0.090631C1.26677 0.13955 1.35036 0.206546 1.4179 0.28763L7.80375 7.48908C7.87405 7.56783 7.9274 7.65957 7.96061 7.75884C7.99383 7.85811 8.00623 7.96288 7.99708 8.06691Z" fill="#FF8103"/>
</svg>
