<svg width="32" height="32" viewBox="0 0 32 32" fill="none" xmlns="http://www.w3.org/2000/svg">
<path d="M31.2033 14.7089H29.0788V6.36346C29.0788 6.09853 28.946 5.96603 28.8132 5.83356L27.0871 4.1115C27.0871 3.31669 26.6888 2.52187 26.0249 1.85953C25.361 1.19719 24.4315 0.799805 23.502 0.799805C22.5726 0.799805 21.6431 1.19719 20.9792 1.85953C20.8465 1.992 20.7137 2.25697 20.7137 2.38943C20.7137 2.65437 20.8465 2.78679 20.9792 2.91926L24.8298 6.76085C24.9626 6.89332 25.2282 7.0258 25.361 7.0258C25.4938 7.0258 25.7593 6.89332 25.8921 6.76085C26.1577 6.49591 26.4232 6.23101 26.556 5.96608L27.3527 6.76085V14.8413H11.6846V12.5895H18.4564C18.8548 12.5895 19.2531 12.192 19.2531 11.7946V1.99205C19.2531 1.59464 18.8548 1.19719 18.4564 1.19719H3.18671C2.78837 1.19719 2.39002 1.59464 2.39002 1.99205V11.7946C2.39002 12.192 2.78837 12.5895 3.18671 12.5895H9.9585V14.8413H0.796688C0.398348 14.8413 0 15.2388 0 15.6362V18.6829C0 19.0803 0.398348 19.4777 0.796688 19.4777H2.92114V31.3998H4.6473V19.4777H18.0581V28.618C18.0581 29.0154 18.4564 29.4128 18.8547 29.4128H27.3527V31.3998H29.0788V19.4777H31.2033C31.6017 19.4777 32 19.0803 32 18.6829V15.6362C32 15.1063 31.6017 14.7089 31.2033 14.7089ZM25.361 4.90627L22.9709 2.52187C23.1037 2.3894 23.3693 2.38943 23.6348 2.38943C24.166 2.38943 24.5643 2.52185 24.9626 2.91926C25.361 3.31666 25.4937 3.71406 25.4937 4.24393C25.4937 4.3764 25.4938 4.64134 25.361 4.90627ZM17.7925 2.65438V7.55562H4.24894V2.65438H17.7925ZM4.24894 9.27777H17.7925V10.8673H4.24894V9.27777ZM19.7842 27.6908V24.379H27.4854V27.6908H19.7842ZM27.4854 22.7894H19.7842V19.4777H27.4854V22.7894ZM30.4066 17.7557H1.85891V16.431H30.4066V17.7557Z" fill="#FF8103"/>
</svg>
