<svg width="30" height="24" viewBox="0 0 30 24" fill="none" xmlns="http://www.w3.org/2000/svg">
<path d="M5.59119 11.9463H24.4084C24.8385 11.9463 25.1611 11.6233 25.1611 11.1927V1.50361C25.1611 1.07298 24.8385 0.75 24.4084 0.75H5.59119C5.16108 0.75 4.83849 1.07298 4.83849 1.50361V11.1927C4.73096 11.5156 5.16108 11.9463 5.59119 11.9463ZM6.34389 2.25721H23.5482V10.3314H6.34389V2.25721Z" fill="#FF8103"/>
<path d="M29.2473 14.5303H0.752701C0.322593 14.5303 0 14.8533 0 15.2839V22.4969C0 22.9275 0.322593 23.2505 0.752701 23.2505H29.2473C29.6774 23.2505 30 22.9275 30 22.4969V15.2839C30 14.8533 29.6774 14.5303 29.2473 14.5303ZM9.78494 19.6978H20.2151V21.7433H9.78494V19.6978ZM20.2151 18.083H9.78494V16.0375H20.2151V18.083ZM1.5054 16.1451H8.17204V21.7433H1.5054V16.1451ZM28.4946 21.7433H21.7204V16.1451H28.3871V21.7433H28.4946Z" fill="#FF8103"/>
<path d="M4.83811 16.6836C3.54779 16.6836 2.58008 17.7602 2.58008 18.9444C2.58008 20.2363 3.65532 21.2052 4.83811 21.2052C6.12844 21.2052 7.09618 20.1286 7.09618 18.9444C7.20371 17.6525 6.12844 16.6836 4.83811 16.6836ZM4.83811 19.5903C4.40801 19.5903 4.08545 19.2673 4.08545 18.8367C4.08545 18.4061 4.40801 18.0832 4.83811 18.0832C5.26822 18.0832 5.59081 18.4061 5.59081 18.8367C5.59081 19.2673 5.26822 19.5903 4.83811 19.5903Z" fill="#FF8103"/>
<path d="M25.0535 21.2052C26.3438 21.2052 27.3115 20.1286 27.3115 18.9444C27.3115 17.6525 26.2363 16.6836 25.0535 16.6836C23.7632 16.6836 22.7954 17.7602 22.7954 18.9444C22.7954 20.2363 23.7632 21.2052 25.0535 21.2052ZM25.0535 18.1908C25.4836 18.1908 25.8061 18.5138 25.8061 18.9444C25.8061 19.375 25.4836 19.698 25.0535 19.698C24.6234 19.698 24.3008 19.375 24.3008 18.9444C24.3008 18.5138 24.6234 18.1908 25.0535 18.1908Z" fill="#FF8103"/>
</svg>
